Get game box-score — getGameBoxScore • euroleaguer
…
#> 2        1 E2023      LDLC ASVEL VILLEURBAN…       18       31       55       73
#> 3        1 U2023      PROMETEY SLOBOZHANSKE        35       54       78       97
#> 4        1 U2023      VEOLIA TOWERS HAMBURG        15       42       62       77
#> 
#> $ByQuarter
#> # A tibble: 4 × 7
#>   GameCode SeasonCode Team                   Quarter1 Quarter2 Quarter3 Quarter4
#>      <dbl> <chr>      <chr>                     <int>    <int>    <int>    <int>
#> 1        1 E2023      CRVENA ZVEZDA MERIDIA…       29       23       17       25
#> 2        1 E2023      LDLC ASVEL VILLEURBAN…       18       13       24       18
#> 3        1 U2023      PROMETEY SLOBOZHANSKE        35       19       24       19
#> 4        1 U2023      VEOLIA TOWERS HAMBURG        15       27       20       15
#> 
#> $PlayerStats
#> # A tibble: 45 × 31
#>    GameCode SeasonCode Player_ID IsStarter IsPlaying TeamCode Player     Seconds
#>       <dbl> <chr>      <chr>         <int>     <int> <chr>    <chr>        <dbl>
#>  1        1 E2023      004720            0         1 RED      STEFAN LA…     304
#>  2        1 E2023      JDR               0         1 RED      MILOS TEO…     877
#>  3        1 E2023      005099            0         1 RED      ADAM HANG…    1341
#>  4        1 E2023      002553            0         1 RED      LUKA MITR…    1292
#>  5        1 E2023      LUO               1         0 RED      BRANKO LA…     766
#>  6        1 E2023      012711            1         0 RED      MARKO SIM…    1102
#>  7        1 E2023      011224            1         0 RED      SHABAZZ N…    1240
#>  8        1 E2023      008966            0         0 RED      MIKE TOBE…     784
#>  9        1 E2023      011964            0         1 RED      DALIBOR I…     873
#> 10        1 E2023      000848            0         0 RED      NEMANJA N…    1017
#> # ℹ 35 more rows
#> # ℹ 23 more variables: PTS <int>, `2PM` <int>, `2PA` <int>, `3PM` <int>,
#> #   `3PA` <int>, FTM <int>, FTA <int>, OREB <int>, DREB <int>, REB <int>,
#> #   AST <int>, STL <int>, TO <int>, BLK <int>, BLKA <int>, FC <int>, FD <int>,
#> #   PIR <int>, PM <int>, `FG%` <dbl>, `2P%` <dbl>, `3P%` <dbl>, `FT%` <dbl>
…
